<?xml version="1.0" encoding="UTF-8" standalone="no"?>
<svg
   xmlns:dc="http://purl.org/dc/elements/1.1/"
   xmlns:cc="http://creativecommons.org/ns#"
   xmlns:rdf="http://www.w3.org/1999/02/22-rdf-syntax-ns#"
   xmlns:svg="http://www.w3.org/2000/svg"
   xmlns="http://www.w3.org/2000/svg"
   xmlns:sodipodi="http://sodipodi.sourceforge.net/DTD/sodipodi-0.dtd"
   xmlns:inkscape="http://www.inkscape.org/namespaces/inkscape"
   xml:space="preserve"
   enable-background="new 0 0 24 32"
   viewBox="0 0 24.999998 33.179207"
   height="33.179207"
   width="24.999998"
   y="0px"
   x="0px"
   id="Layer_1"
   version="1.1"
   sodipodi:docname="marker_active.svg"
   inkscape:version="1.0 (4035a4fb49, 2020-05-01)"><sodipodi:namedview
   fit-margin-bottom="0"
   fit-margin-right="0"
   fit-margin-left="0"
   fit-margin-top="0"
   inkscape:document-rotation="0"
   pagecolor="#ffffff"
   bordercolor="#666666"
   borderopacity="1"
   objecttolerance="10"
   gridtolerance="10"
   guidetolerance="10"
   inkscape:pageopacity="0"
   inkscape:pageshadow="2"
   inkscape:window-width="1912"
   inkscape:window-height="1053"
   id="namedview8"
   showgrid="false"
   inkscape:zoom="12.9375"
   inkscape:cx="-2.1836001"
   inkscape:cy="20.391038"
   inkscape:window-x="4"
   inkscape:window-y="4"
   inkscape:window-maximized="0"
   inkscape:current-layer="Layer_1" /><metadata
   id="metadata13"><rdf:RDF><cc:Work
       rdf:about=""><dc:format>image/svg+xml</dc:format><dc:type
         rdf:resource="http://purl.org/dc/dcmitype/StillImage" /><dc:title></dc:title></cc:Work></rdf:RDF></metadata><defs
   id="defs11">
	
	
</defs>

<path
   id="path4532"
   d="M 11.613784,31.622852 C 6.7624515,27.017645 3.1957968,21.954532 1.6732266,17.511543 0.57768791,14.314666 0.4728158,11.434349 1.3560295,8.7997099 1.9509365,7.0250927 2.8741261,5.5471756 4.2274003,4.202985 5.7532625,2.6873649 7.410249,1.7256154 9.456684,1.167799 c 2.025468,-0.55210116 4.304544,-0.53091953 6.331724,0.058847 3.553727,1.0338832 6.425833,3.7043875 7.733185,7.1903687 0.540467,1.4411265 0.756044,2.8150684 0.704512,4.4900814 -0.04799,1.560115 -0.31242,2.956469 -0.876843,4.630377 -1.129557,3.349932 -3.420887,7.053993 -6.589399,10.652125 -1.2037,1.366908 -4.018719,4.176071 -4.232965,4.224157 -0.03557,0.008 -0.44646,-0.347925 -0.913114,-0.790903 z m 1.699895,-12.82367 C 15.906495,18.465608 18.053174,16.59812 18.728418,14.088666 19.400454,11.59114 18.471126,8.8992896 16.399448,7.3426668 14.269574,5.7423182 11.340312,5.6069461 9.1081101,7.0057073 7.1878626,8.2089892 6.0796807,10.201337 6.0796807,12.450377 c 0,3.260245 2.4212962,5.955163 5.7205033,6.366957 0.316801,0.03954 1.141969,0.02965 1.513495,-0.01816 z"
   style="opacity:1;fill:#ff0000;fill-opacity:1;stroke:#000000;stroke-width:1.533;stroke-linejoin:round;stroke-miterlimit:4;stroke-dasharray:none;stroke-opacity:1;paint-order:normal" /></svg>
